<?xml version="1.0" encoding="UTF-8"?>
<svg width="22px" height="23px" viewBox="0 0 22 23" version="1.1" xmlns="http://www.w3.org/2000/svg" xmlns:xlink="http://www.w3.org/1999/xlink">
    <!-- Generator: Sketch 49.2 (51160) - http://www.bohemiancoding.com/sketch -->
    <title>Stroke 5</title>
    <desc>Created with Sketch.</desc>
    <defs></defs>
    <g id="Quantor.-Landing-page" stroke="none" stroke-width="1" fill="none" fill-rule="evenodd">
        <g id="ТРЦ-ЩУКА---03---2-FLOOR-x2---1280" transform="translate(-973.000000, -308.000000)" fill="#FFFFFF" fill-rule="nonzero">
            <g id="Group-4" transform="translate(973.000000, 308.000000)">
                <path d="M9.11516837,2.72665787 C9.12250174,2.84299135 9.13645199,2.98390613 9.16145754,3.14634207 C9.18230165,3.28174531 9.20930428,3.42402689 9.24218183,3.57242882 C9.25101205,3.16530852 9.2091042,2.87509111 9.11516837,2.72665787 Z M2.90389311,19.4783988 C2.97876279,19.3923559 3.05768792,19.2975313 3.139611,19.1941421 C3.25167296,19.0527168 3.36653783,18.8995145 3.48371789,18.7354237 C3.21143531,18.9888979 3.01569302,19.2381914 2.90389311,19.4783988 Z M6.54202324,13.0438735 C8.27320167,9.05354416 9.20509918,5.28213866 9.24218183,3.57242882 C9.53999203,4.91667736 10.3198424,6.76310291 11.3709737,8.54835385 C14.0587482,13.1132947 17.152081,15.3432813 18.9265471,13.924735 C19.0677149,13.8118626 19.1233521,13.7486415 19.1061939,13.7884656 C18.9951408,14.0462188 19.0437513,14.4091453 19.2581058,14.6527688 C19.3381838,14.7437811 19.3441654,14.7468726 19.2802552,14.7290551 C19.1032347,14.6797037 18.8402884,14.6401566 18.5084534,14.6175127 C17.0061527,14.5149978 14.5264954,14.7742431 11.9836652,15.3159012 C7.91580621,16.1824115 4.80228367,17.5079399 3.48371789,18.7354237 C4.43744241,17.3998939 5.54453135,15.3430711 6.54202324,13.0438735 Z M9.21520773,9.81763925 C7.90007707,7.58400931 6.95325099,5.24418462 6.68890123,3.52696987 C6.30965246,1.06337169 7.52187109,-0.64461933 9.9191252,0.298173376 C12.4471374,1.29295137 12.0601842,5.56028783 10.0183131,11.1048199 C9.74533124,10.6924474 9.47735141,10.2628665 9.21520773,9.81763925 Z M11.4624658,12.8691149 C14.2135423,12.2830975 16.9114414,12.0010352 18.6787686,12.1216351 C19.8283546,12.2000812 20.6285402,12.4231642 21.1362829,13.0002366 C21.99502,13.9762299 21.5361732,15.0412091 20.4887295,15.8787049 C17.65418,18.1447046 14.291362,16.5737339 11.3254603,12.8984991 C11.371034,12.8886578 11.4167028,12.878863 11.4624658,12.8691149 Z M8.83702817,14.0395465 C7.63775763,16.8038395 6.28165586,19.2569791 5.1003676,20.7477977 C4.37184941,21.6672079 3.69731383,22.2583568 2.97181394,22.4783679 C1.79096613,22.8364653 0.830535157,22.1527417 0.446894645,20.9358171 C-0.607827858,17.589897 3.13509804,15.0543406 9.0939715,13.4390034 C9.01002086,13.6380492 8.92435659,13.8382564 8.83702817,14.0395465 Z M11.3254603,12.8984991 C10.8797333,12.3461709 10.4429709,11.7463175 10.0183131,11.1048199 C9.73990202,11.8608221 9.43072343,12.6405693 9.0939715,13.4390034 C9.80750545,13.2455779 10.5528126,13.0653469 11.3254603,12.8984991 Z" id="Stroke-5"></path>
            </g>
        </g>
    </g>
</svg>