
<svg width="20px" height="22px" viewBox="0 0 20 22" version="1.1" xmlns="http://www.w3.org/2000/svg" xmlns:xlink="http://www.w3.org/1999/xlink">
    <g id="Quantor.-Landing-page" stroke="none" stroke-width="1" fill="none" fill-rule="evenodd" stroke-linecap="round" stroke-linejoin="round">
        <g id="ТРЦ-ЩУКА---03---2-FLOOR-x1---1280" transform="translate(-1202.000000, -35.000000)" stroke="#FFFFFF" stroke-width="2">
            <g id="Page-1" transform="translate(1203.000000, 36.000000)">
                <path d="M17.845619,19.9999048 L17.845619,16.345619 C17.845619,14.325619 16.2589524,12.6741905 14.3208571,12.6741905 L3.52466667,12.6741905 C1.58657143,12.6741905 -9.52380942e-05,14.325619 -9.52380942e-05,16.345619 L-9.52380942e-05,19.9999048 L17.845619,19.9999048 Z" id="Stroke-1"></path>
                <path d="M12.7470476,4.77666667 C12.7470476,6.88809524 11.0346667,8.60047619 8.92228571,8.60047619 C6.81085714,8.60047619 5.09847619,6.88809524 5.09847619,4.77666667 C5.09847619,2.66428571 6.81085714,0.951904762 8.92228571,0.951904762 C11.0346667,0.951904762 12.7470476,2.66428571 12.7470476,4.77666667 Z" id="Stroke-3"></path>
            </g>
        </g>
    </g>
</svg>