<?xml version="1.0" encoding="UTF-8"?>
<svg width="25px" height="32px" viewBox="0 0 25 32" version="1.1" xmlns="http://www.w3.org/2000/svg" xmlns:xlink="http://www.w3.org/1999/xlink">
    <!-- Generator: Sketch 49.2 (51160) - http://www.bohemiancoding.com/sketch -->
    <title>Page 1</title>
    <desc>Created with Sketch.</desc>
    <defs></defs>
    <g id="Quantor.-Landing-page" stroke="none" stroke-width="1" fill="none" fill-rule="evenodd">
        <g id="ТРЦ-ЩУКА---03---2-FLOOR-x1---1280" transform="translate(-912.000000, -305.000000)">
            <g id="Page-1" transform="translate(912.000000, 305.000000)">
                <path d="M24.6153846,7.4880772 L24.6153846,31.0102991 C24.6153846,31.5571088 24.168812,32 23.6174569,32 L0.997927741,32 C0.446572664,32 0,31.5571088 0,31.0102991 L0,0.989700925 C0,0.443386014 0.446572664,0 0.997927741,0 L17.1309266,0" id="Fill-1" fill="#FF4B3A"></path>
                <path d="M24.6153846,7.38461538 L18.2153846,7.38461538 C17.6713846,7.38461538 17.2307692,6.94735558 17.2307692,6.40858903 L17.2307692,0" id="Fill-3" fill="#E23826"></path>
                <path d="M10.6911293,10.7207468 C10.6943736,10.8080642 10.7036391,10.9215893 10.7245437,11.0573854 C10.7445532,11.1873674 10.7731686,11.326937 10.8098117,11.474552 C10.8317704,11.0768827 10.792965,10.8124435 10.6911293,10.7207468 Z M6.5803736,21.8652571 C6.65110284,21.7880662 6.72868178,21.6974356 6.81075075,21.5938623 C6.91505495,21.4622275 7.02303513,21.3151026 7.13378376,21.154142 C6.84166725,21.3980647 6.65229473,21.6382937 6.5803736,21.8652571 Z M9.04536825,17.5549019 C10.1358786,15.0412986 10.7441887,12.6629821 10.8098117,11.474552 C11.0258391,12.344807 11.5208825,13.4946915 12.1765152,14.608224 C13.9453162,17.6123718 15.9847973,19.0826357 17.1632232,18.1405767 C17.2582167,18.0646236 17.2967802,18.0208034 17.2870946,18.0432837 C17.2173103,18.2052523 17.2480648,18.4348656 17.3833057,18.588573 C17.4327278,18.6447434 17.4333463,18.645063 17.3879435,18.6324052 C17.2703199,18.5996131 17.0965118,18.5734723 16.8775533,18.5585309 C15.8899175,18.491136 14.2615498,18.66138 12.5918246,19.0170546 C10.0447368,19.5596196 8.06603987,20.3756908 7.13378376,21.154142 C7.73770815,20.2764058 8.42395649,18.9872427 9.04536825,17.5549019 Z M10.7977526,15.4200206 C9.93628088,13.9568891 9.31612825,12.4243496 9.1431715,11.3008234 C8.89643929,9.69805214 9.68014956,8.59382054 11.2343129,9.20504229 C12.8704236,9.84885522 12.6235833,12.6232017 11.3015287,16.2294137 C11.1304259,15.9696537 10.9623395,15.6995564 10.7977526,15.4200206 Z M12.2584813,17.4521642 C14.0613945,17.0681187 15.8293431,16.8832817 16.9864817,16.9622432 C17.7354014,17.0133484 18.2562477,17.1585546 18.584531,17.5316634 C19.1375386,18.1601814 18.8415208,18.847236 18.1623478,19.3902767 C16.3219333,20.8615435 14.1351545,19.8480886 12.2013627,17.4643843 C12.2203771,17.4602985 12.2394167,17.4562252 12.2584813,17.4521642 Z M10.5131839,18.1917041 C9.72714927,20.0034973 8.8383911,21.611229 8.06479131,22.5875334 C7.58930506,23.1876103 7.14948315,23.573061 6.67865075,23.715843 C5.91613453,23.9470795 5.29648041,23.5059524 5.04789866,22.7174402 C4.36384103,20.5473886 6.79202274,18.8940764 10.6652037,17.8368763 C10.6154328,17.9545529 10.5647517,18.0728415 10.5131839,18.1917041 Z M12.2013627,17.4643843 C11.8942363,17.0858024 11.5934913,16.6726573 11.3015287,16.2294137 C11.1109557,16.7492459 10.8980409,17.2863634 10.6652037,17.8368763 C11.1552506,17.7031161 11.6684292,17.5788985 12.2013627,17.4643843 Z" id="Stroke-5" fill="#FFFFFF" fill-rule="nonzero"></path>
            </g>
        </g>
    </g>
</svg>