<?xml version="1.0" encoding="UTF-8"?>
<svg width="372px" height="84px" viewBox="0 0 372 84" version="1.1" xmlns="http://www.w3.org/2000/svg" xmlns:xlink="http://www.w3.org/1999/xlink">
    <!-- Generator: Sketch 49.2 (51160) - http://www.bohemiancoding.com/sketch -->
    <title>Logo ЩУКА</title>
    <desc>Created with Sketch.</desc>
    <defs></defs>
    <g id="Quantor.-Landing-page" stroke="none" stroke-width="1" fill="none" fill-rule="evenodd">
        <g id="ТРЦ-ЩУКА---01---Login---1280" transform="translate(-223.000000, -335.000000)" fill="#FFFFFF">
            <g id="Logo-ЩУКА" transform="translate(223.000000, 335.000000)">
                <path d="M318.7849,18.5357 L325.0519,11.0087 L333.2129,20.8097 C328.5069,20.0147 323.6959,19.2567 318.7849,18.5357 Z M334.2189,-0.0003 L315.8859,-0.0003 L302.3129,16.2987 L293.0439,27.4317 L281.8859,40.8337 L300.2189,40.8337 L309.4849,29.7037 C322.7639,31.7107 333.9249,32.4277 345.1669,34.9997 L349.8859,40.8337 L363.0659,40.8337 L368.2189,40.8337 L334.2189,-0.0003 Z" id="Fill-10"></path>
                <path d="M253.3083,40.8335 L272.6413,40.8335 L258.5603,23.9115 L253.6413,18.0005 L267.6413,0.0005 L248.3083,0.0005 L239.8943,10.8175 C232.2563,10.4005 224.5053,10.0605 216.6413,9.8085 L216.6413,0.0005 L202.3083,0.0005 L202.3083,9.4455 L202.3083,21.1305 L202.3083,40.8335 L216.6413,40.8335 L216.6413,21.5225 C223.8923,21.7735 231.0363,22.1015 238.0553,22.5025 L253.3083,40.8335 Z" id="Fill-7"></path>
                <path d="M183.2184,0 L164.8854,0 L156.9334,9.55 C146.7594,9.784 136.7534,10.16 126.9374,10.667 L118.6414,0 L99.3074,0 L108.4734,11.784 L117.2274,23.04 C126.8984,22.395 136.8214,21.889 146.9554,21.534 L130.8854,40.833 L149.2184,40.833 L165.6874,21.054 L175.4924,9.278 L183.2184,0 Z" id="Fill-4"></path>
                <path d="M72.654,14.9947 L72.654,-0.0003 L58.321,-0.0003 L58.321,16.7017 C53.227,17.3557 48.233,18.0517 43.333,18.7827 L43.333,-0.0003 L29,-0.0003 L29,21.0747 C23.988,21.9337 19.093,22.8317 14.333,23.7717 L14.333,-0.0003 L0,-0.0003 L0,26.8057 L0,32.6667 L0,41.0527 C19.883,35.3747 44.589,30.6527 72.641,27.2077 L72.641,40.8337 L86.975,40.8337 L86.975,25.5847 L86.975,15.8337 L86.975,13.5307 C82.131,13.9847 77.362,14.4747 72.654,14.9947" id="Fill-1"></path>
                <path d="M10.9794922,74.1157227 L7.71289062,74.1157227 L7.71289062,83 L5.515625,83 L5.515625,74.1157227 L2.29296875,74.1157227 L2.29296875,72.3359375 L10.9794922,72.3359375 L10.9794922,74.1157227 Z M22.866621,77.909668 C22.866621,78.9594779 22.681076,79.8798789 22.3099804,80.6708984 C21.9388848,81.461918 21.4078842,82.0722635 20.7169628,82.5019531 C20.0260414,82.9316428 19.233813,83.1464844 18.3402538,83.1464844 C17.4564603,83.1464844 16.667894,82.9340842 15.9745312,82.5092773 C15.2811683,82.0844705 14.7440643,81.4777871 14.363203,80.689209 C13.9823418,79.9006308 13.7894726,78.9936575 13.7845898,77.9682617 L13.7845898,77.440918 C13.7845898,76.391108 13.9737969,75.467045 14.3522167,74.6687012 C14.7306366,73.8703573 15.2652992,73.2575705 15.9562206,72.8303223 C16.6471421,72.403074 17.4369291,72.1894531 18.3256054,72.1894531 C19.2142817,72.1894531 20.0040687,72.403074 20.6949902,72.8303223 C21.3859116,73.2575705 21.9205742,73.8703573 22.2989941,74.6687012 C22.6774139,75.467045 22.866621,76.3886667 22.866621,77.4335938 L22.866621,77.909668 Z M20.6400585,77.4262695 C20.6400585,76.3080999 20.4398652,75.458499 20.0394726,74.8774414 C19.63908,74.2963838 19.0677966,74.0058594 18.3256054,74.0058594 C17.588297,74.0058594 17.0194551,74.2927217 16.6190624,74.8664551 C16.2186698,75.4401884 16.0160351,76.2812445 16.0111523,77.3896484 L16.0111523,77.909668 C16.0111523,78.9985406 16.2113456,79.8432587 16.6117382,80.4438477 C17.0121308,81.0444366 17.5882969,81.3447266 18.3402538,81.3447266 C19.0775622,81.3447266 19.6439628,81.0554228 20.0394726,80.4768066 C20.4349824,79.8981905 20.6351757,79.054693 20.6400585,77.9462891 L20.6400585,77.4262695 Z M28.7405663,79.2426758 L28.7405663,83 L26.5433006,83 L26.5433006,72.3359375 L30.7034569,72.3359375 C31.5042421,72.3359375 32.2085808,72.4824204 32.816494,72.7753906 C33.4244072,73.0683608 33.8919318,73.4846164 34.2190819,74.0241699 C34.546232,74.5637234 34.7098045,75.1777309 34.7098045,75.8662109 C34.7098045,76.911138 34.3521421,77.7351044 33.6368065,78.3381348 C32.9214709,78.9411651 31.9314905,79.2426758 30.6668358,79.2426758 L28.7405663,79.2426758 Z M28.7405663,77.4628906 L30.7034569,77.4628906 C31.2845145,77.4628906 31.7276253,77.3261732 32.0328026,77.0527344 C32.3379799,76.7792955 32.4905663,76.3886744 32.4905663,75.8808594 C32.4905663,75.3583958 32.3367592,74.9360368 32.0291405,74.6137695 C31.7215217,74.2915023 31.2967213,74.1254883 30.7547264,74.1157227 L28.7405663,74.1157227 L28.7405663,77.4628906 Z M45.2932224,74.1157227 L40.5105076,74.1157227 L40.5105076,83 L38.313242,83 L38.313242,72.3359375 L45.2932224,72.3359375 L45.2932224,74.1157227 Z M57.00457,77.909668 C57.00457,78.9594779 56.819025,79.8798789 56.4479294,80.6708984 C56.0768338,81.461918 55.5458332,82.0722635 54.8549118,82.5019531 C54.1639904,82.9316428 53.371762,83.1464844 52.4782028,83.1464844 C51.5944093,83.1464844 50.805843,82.9340842 50.1124802,82.5092773 C49.4191173,82.0844705 48.8820133,81.4777871 48.501152,80.689209 C48.1202908,79.9006308 47.9274216,78.9936575 47.9225388,77.9682617 L47.9225388,77.440918 C47.9225388,76.391108 48.1117458,75.467045 48.4901657,74.6687012 C48.8685856,73.8703573 49.4032482,73.2575705 50.0941696,72.8303223 C50.785091,72.403074 51.5748781,72.1894531 52.4635544,72.1894531 C53.3522307,72.1894531 54.1420177,72.403074 54.8329391,72.8303223 C55.5238606,73.2575705 56.0585232,73.8703573 56.4369431,74.6687012 C56.8153629,75.467045 57.00457,76.3886667 57.00457,77.4335938 L57.00457,77.909668 Z M54.7780075,77.4262695 C54.7780075,76.3080999 54.5778142,75.458499 54.1774216,74.8774414 C53.7770289,74.2963838 53.2057456,74.0058594 52.4635544,74.0058594 C51.726246,74.0058594 51.157404,74.2927217 50.7570114,74.8664551 C50.3566188,75.4401884 50.1539841,76.2812445 50.1491013,77.3896484 L50.1491013,77.909668 C50.1491013,78.9985406 50.3492946,79.8432587 50.7496872,80.4438477 C51.1500798,81.0444366 51.7262459,81.3447266 52.4782028,81.3447266 C53.2155112,81.3447266 53.7819118,81.0554228 54.1774216,80.4768066 C54.5729314,79.8981905 54.7731247,79.054693 54.7780075,77.9462891 L54.7780075,77.4262695 Z M60.6812496,83 L60.6812496,72.3359375 L64.4166012,72.3359375 C65.710553,72.3359375 66.6919885,72.5837378 67.3609371,73.0793457 C68.0298858,73.5749536 68.3643551,74.3012647 68.3643551,75.2583008 C68.3643551,75.7807643 68.2300791,76.2409648 67.9615231,76.638916 C67.692967,77.0368672 67.3194356,77.3286124 66.8409176,77.5141602 C67.3877953,77.6508796 67.8186992,77.9267557 68.1336422,78.3417969 C68.4485852,78.756838 68.6060543,79.2646454 68.6060543,79.8652344 C68.6060543,80.8906301 68.2789091,81.6669896 67.624609,82.1943359 C66.9703088,82.7216823 66.037701,82.9902343 64.8267574,83 L60.6812496,83 Z M62.8785152,78.3564453 L62.8785152,81.2348633 L64.7608395,81.2348633 C65.2784202,81.2348633 65.6824689,81.1115735 65.9729977,80.8649902 C66.2635265,80.618407 66.4087887,80.2778342 66.4087887,79.8432617 C66.4087887,78.8666943 65.9034226,78.3710938 64.8926754,78.3564453 L62.8785152,78.3564453 Z M62.8785152,76.8037109 L64.5044918,76.8037109 C65.6128958,76.7841796 66.1670895,76.3422895 66.1670895,75.4780273 C66.1670895,74.9946265 66.02671,74.6467296 65.7459469,74.4343262 C65.4651838,74.2219228 65.022073,74.1157227 64.4166012,74.1157227 L62.8785152,74.1157227 L62.8785152,76.8037109 Z M81.0937691,77.909668 C81.0937691,78.9594779 80.9082241,79.8798789 80.5371284,80.6708984 C80.1660328,81.461918 79.6350323,82.0722635 78.9441109,82.5019531 C78.2531894,82.9316428 77.460961,83.1464844 76.5674019,83.1464844 C75.6836084,83.1464844 74.8950421,82.9340842 74.2016792,82.5092773 C73.5083164,82.0844705 72.9712124,81.4777871 72.5903511,80.689209 C72.2094898,79.9006308 72.0166207,78.9936575 72.0117378,77.9682617 L72.0117378,77.440918 C72.0117378,76.391108 72.2009449,75.467045 72.5793648,74.6687012 C72.9577846,73.8703573 73.4924473,73.2575705 74.1833687,72.8303223 C74.8742901,72.403074 75.6640771,72.1894531 76.5527534,72.1894531 C77.4414298,72.1894531 78.2312168,72.403074 78.9221382,72.8303223 C79.6130596,73.2575705 80.1477223,73.8703573 80.5261421,74.6687012 C80.904562,75.467045 81.0937691,76.3886667 81.0937691,77.4335938 L81.0937691,77.909668 Z M78.8672066,77.4262695 C78.8672066,76.3080999 78.6670133,75.458499 78.2666206,74.8774414 C77.866228,74.2963838 77.2949447,74.0058594 76.5527534,74.0058594 C75.8154451,74.0058594 75.2466031,74.2927217 74.8462105,74.8664551 C74.4458179,75.4401884 74.2431832,76.2812445 74.2383003,77.3896484 L74.2383003,77.909668 C74.2383003,78.9985406 74.4384936,79.8432587 74.8388863,80.4438477 C75.2392789,81.0444366 75.815445,81.3447266 76.5674019,81.3447266 C77.3047103,81.3447266 77.8711108,81.0554228 78.2666206,80.4768066 C78.6621304,79.8981905 78.8623237,79.054693 78.8672066,77.9462891 L78.8672066,77.4262695 Z M88.7474995,79.2866211 L84.6239643,79.2866211 L84.6239643,77.5800781 L88.7474995,77.5800781 L88.7474995,79.2866211 Z M94.8631439,79.2426758 L94.8631439,83 L92.6658783,83 L92.6658783,72.3359375 L96.8260345,72.3359375 C97.6268198,72.3359375 98.3311585,72.4824204 98.9390717,72.7753906 C99.5469849,73.0683608 100.014509,73.4846164 100.34166,74.0241699 C100.66881,74.5637234 100.832382,75.1777309 100.832382,75.8662109 C100.832382,76.911138 100.47472,77.7351044 99.7593842,78.3381348 C99.0440485,78.9411651 98.0540682,79.2426758 96.7894135,79.2426758 L94.8631439,79.2426758 Z M94.8631439,77.4628906 L96.8260345,77.4628906 C97.4070921,77.4628906 97.8502029,77.3261732 98.1553802,77.0527344 C98.4605576,76.7792955 98.6131439,76.3886744 98.6131439,75.8808594 C98.6131439,75.3583958 98.4593369,74.9360368 98.1517181,74.6137695 C97.8440994,74.2915023 97.419299,74.1254883 96.8773041,74.1157227 L94.8631439,74.1157227 L94.8631439,77.4628906 Z M109.137968,80.8027344 L105.285429,80.8027344 L104.553007,83 L102.216581,83 L106.186308,72.3359375 L108.222441,72.3359375 L112.21414,83 L109.877714,83 L109.137968,80.8027344 Z M105.878691,79.0229492 L108.544706,79.0229492 L107.204374,75.03125 L105.878691,79.0229492 Z M120.549023,75.2729492 C120.549023,74.8676738 120.390333,74.5490734 120.072948,74.3171387 C119.755564,74.0852039 119.335646,73.9692383 118.813183,73.9692383 C118.34443,73.9692383 117.95503,74.0852039 117.64497,74.3171387 C117.33491,74.5490734 117.179882,74.8505841 117.179882,75.2216797 L114.982616,75.2216797 C114.982616,74.6455049 115.144968,74.1267113 115.469677,73.6652832 C115.794386,73.2038551 116.255807,72.8437513 116.853954,72.5849609 C117.452102,72.3261706 118.105171,72.1967773 118.813183,72.1967773 C120.043658,72.1967773 121.008004,72.4604466 121.706249,72.987793 C122.404495,73.5151394 122.753613,74.2622022 122.753613,75.2290039 C122.753613,75.7026391 122.610792,76.1420878 122.325146,76.5473633 C122.0395,76.9526387 121.63301,77.2773425 121.105663,77.5214844 C121.691604,77.7265635 122.140818,78.0378397 122.45332,78.4553223 C122.765821,78.8728048 122.92207,79.3915985 122.92207,80.0117188 C122.92207,80.9687548 122.547317,81.7292452 121.797802,82.2932129 C121.048287,82.8571806 120.053423,83.1391602 118.813183,83.1391602 C118.036812,83.1391602 117.338577,83.0061048 116.718456,82.7399902 C116.098336,82.4738756 115.62837,82.1101097 115.308544,81.6486816 C114.988718,81.1872536 114.828808,80.6513702 114.828808,80.0410156 L117.040722,80.0410156 C117.040722,80.4218769 117.206736,80.7404772 117.538769,80.9968262 C117.870802,81.2531751 118.295602,81.3813477 118.813183,81.3813477 C119.399123,81.3813477 119.861765,81.249513 120.201122,80.9858398 C120.540479,80.7221667 120.710155,80.3876973 120.710155,79.9824219 C120.710155,79.4257785 120.55879,79.0266125 120.256054,78.7849121 C119.953318,78.5432117 119.511428,78.4223633 118.93037,78.4223633 L117.619335,78.4223633 L117.619335,76.7011719 L118.974316,76.7011719 C120.024126,76.6865234 120.549023,76.2104539 120.549023,75.2729492 Z M126.620722,83 L126.620722,72.3359375 L130.356073,72.3359375 C131.650025,72.3359375 132.631461,72.5837378 133.300409,73.0793457 C133.969358,73.5749536 134.303827,74.3012647 134.303827,75.2583008 C134.303827,75.7807643 134.169551,76.2409648 133.900995,76.638916 C133.632439,77.0368672 133.258908,77.3286124 132.78039,77.5141602 C133.327268,77.6508796 133.758171,77.9267557 134.073114,78.3417969 C134.388057,78.756838 134.545527,79.2646454 134.545527,79.8652344 C134.545527,80.8906301 134.218381,81.6669896 133.564081,82.1943359 C132.909781,82.7216823 131.977173,82.9902343 130.76623,83 L126.620722,83 Z M128.817987,78.3564453 L128.817987,81.2348633 L130.700312,81.2348633 C131.217892,81.2348633 131.621941,81.1115735 131.91247,80.8649902 C132.202999,80.618407 132.348261,80.2778342 132.348261,79.8432617 C132.348261,78.8666943 131.842895,78.3710938 130.832148,78.3564453 L128.817987,78.3564453 Z M128.817987,76.8037109 L130.443964,76.8037109 C131.552368,76.7841796 132.106562,76.3422895 132.106562,75.4780273 C132.106562,74.9946265 131.966182,74.6467296 131.685419,74.4343262 C131.404656,74.2219228 130.961545,74.1157227 130.356073,74.1157227 L128.817987,74.1157227 L128.817987,76.8037109 Z M146.945351,72.3359375 L146.945351,83 L144.740761,83 L144.740761,74.1157227 L141.898964,74.1157227 L141.723183,77.8803711 C141.64994,79.1499087 141.488809,80.1496546 141.239784,80.8796387 C140.99076,81.6096228 140.626994,82.1442854 140.148476,82.4836426 C139.669958,82.8229997 139.015667,82.9951172 138.185585,83 L137.614296,83 L137.614296,81.2348633 L137.980507,81.1982422 C138.532267,81.1249996 138.926551,80.8063993 139.163368,80.2424316 C139.400186,79.678464 139.550331,78.6738354 139.613808,77.2285156 L139.796913,72.3359375 L146.945351,72.3359375 Z M157.360312,78.378418 L153.141562,78.378418 L153.141562,81.2348633 L158.092733,81.2348633 L158.092733,83 L150.944296,83 L150.944296,72.3359375 L158.078085,72.3359375 L158.078085,74.1157227 L153.141562,74.1157227 L153.141562,76.6572266 L157.360312,76.6572266 L157.360312,78.378418 Z M164.9408,78.6420898 L163.67371,78.6420898 L163.67371,83 L161.476444,83 L161.476444,72.3359375 L163.67371,72.3359375 L163.67371,76.605957 L164.677128,76.605957 L167.28455,72.3359375 L169.965214,72.3359375 L166.67664,77.3823242 L170.309452,83 L167.687382,83 L164.9408,78.6420898 Z M179.252245,80.8027344 L175.399706,80.8027344 L174.667284,83 L172.330858,83 L176.300585,72.3359375 L178.336718,72.3359375 L182.328417,83 L179.991991,83 L179.252245,80.8027344 Z M175.992968,79.0229492 L178.658983,79.0229492 L177.318651,75.03125 L175.992968,79.0229492 Z M192.552948,74.1157227 L189.286346,74.1157227 L189.286346,83 L187.089081,83 L187.089081,74.1157227 L183.866425,74.1157227 L183.866425,72.3359375 L192.552948,72.3359375 L192.552948,74.1157227 Z M202.301405,78.378418 L198.082655,78.378418 L198.082655,81.2348633 L203.033827,81.2348633 L203.033827,83 L195.885389,83 L195.885389,72.3359375 L203.019178,72.3359375 L203.019178,74.1157227 L198.082655,74.1157227 L198.082655,76.6572266 L202.301405,76.6572266 L202.301405,78.378418 Z M215.074764,72.3359375 L215.074764,83 L212.870174,83 L212.870174,74.1157227 L210.028378,74.1157227 L209.852596,77.8803711 C209.779354,79.1499087 209.618223,80.1496546 209.369198,80.8796387 C209.120173,81.6096228 208.756407,82.1442854 208.277889,82.4836426 C207.799371,82.8229997 207.145081,82.9951172 206.314999,83 L205.74371,83 L205.74371,81.2348633 L206.109921,81.1982422 C206.661681,81.1249996 207.055964,80.8063993 207.292782,80.2424316 C207.529599,79.678464 207.679744,78.6738354 207.743221,77.2285156 L207.926327,72.3359375 L215.074764,72.3359375 Z M221.270975,76.1811523 L222.984842,76.1811523 C224.239731,76.1811523 225.234594,76.4851044 225.969461,77.0930176 C226.704328,77.7009308 227.071756,78.5200144 227.071756,79.550293 C227.071756,80.5854544 226.70677,81.4167449 225.976786,82.0441895 C225.246802,82.671634 224.276352,82.9902343 223.065409,83 L219.059061,83 L219.059061,72.3359375 L221.270975,72.3359375 L221.270975,76.1811523 Z M221.270975,77.9536133 L221.270975,81.2348633 L223.021463,81.2348633 C223.58299,81.2348633 224.030983,81.0810562 224.365458,80.7734375 C224.699932,80.4658188 224.867167,80.0532252 224.867167,79.5356445 C224.867167,79.0522437 224.707256,78.6701674 224.38743,78.3894043 C224.067604,78.1086412 223.629376,77.963379 223.072733,77.9536133 L221.270975,77.9536133 Z M239.215233,83 L237.017967,83 L237.017967,78.4296875 L232.733299,78.4296875 L232.733299,83 L230.536034,83 L230.536034,72.3359375 L232.733299,72.3359375 L232.733299,76.6572266 L237.017967,76.6572266 L237.017967,72.3359375 L239.215233,72.3359375 L239.215233,83 Z M245.448065,76.1811523 L247.161932,76.1811523 C248.416821,76.1811523 249.411684,76.4851044 250.146551,77.0930176 C250.881418,77.7009308 251.248846,78.5200144 251.248846,79.550293 C251.248846,80.5854544 250.883859,81.4167449 250.153875,82.0441895 C249.423891,82.671634 248.453442,82.9902343 247.242498,83 L243.236151,83 L243.236151,72.3359375 L245.448065,72.3359375 L245.448065,76.1811523 Z M254.361639,83 L252.164373,83 L252.164373,72.3359375 L254.361639,72.3359375 L254.361639,83 Z M245.448065,77.9536133 L245.448065,81.2348633 L247.198553,81.2348633 C247.760079,81.2348633 248.208073,81.0810562 248.542547,80.7734375 C248.877022,80.4658188 249.044256,80.0532252 249.044256,79.5356445 C249.044256,79.0522437 248.884346,78.6701674 248.56452,78.3894043 C248.244694,78.1086412 247.806466,77.963379 247.249823,77.9536133 L245.448065,77.9536133 Z M264.761951,72.3359375 L266.966541,72.3359375 L266.966541,83 L264.761951,83 L264.761951,75.9174805 L260.491932,83 L258.294666,83 L258.294666,72.3359375 L260.491932,72.3359375 L260.491932,79.4331055 L264.761951,72.3359375 Z M265.186756,69.5307617 C265.186756,70.180179 264.953604,70.7050761 264.487293,71.1054688 C264.020982,71.5058614 263.409416,71.7060547 262.652576,71.7060547 C261.895737,71.7060547 261.284171,71.5083028 260.81786,71.112793 C260.351549,70.7172832 260.118397,70.1899447 260.118397,69.5307617 L261.619862,69.5307617 C261.619862,69.8383804 261.711413,70.0764152 261.89452,70.244873 C262.077626,70.4133309 262.330309,70.4975586 262.652576,70.4975586 C262.969961,70.4975586 263.218982,70.4133309 263.399647,70.244873 C263.580312,70.0764152 263.670643,69.8383804 263.670643,69.5307617 L265.186756,69.5307617 Z M280.245193,78.6420898 L278.978104,78.6420898 L278.978104,83 L276.780838,83 L276.780838,72.3359375 L278.978104,72.3359375 L278.978104,76.605957 L279.981522,76.605957 L282.588943,72.3359375 L285.269608,72.3359375 L281.981033,77.3823242 L285.613846,83 L282.991776,83 L280.245193,78.6420898 Z M297.068846,77.909668 C297.068846,78.9594779 296.883301,79.8798789 296.512205,80.6708984 C296.14111,81.461918 295.610109,82.0722635 294.919188,82.5019531 C294.228266,82.9316428 293.436038,83.1464844 292.542479,83.1464844 C291.658685,83.1464844 290.870119,82.9340842 290.176756,82.5092773 C289.483393,82.0844705 288.946289,81.4777871 288.565428,80.689209 C288.184567,79.9006308 287.991697,78.9936575 287.986814,77.9682617 L287.986814,77.440918 C287.986814,76.391108 288.176022,75.467045 288.554441,74.6687012 C288.932861,73.8703573 289.467524,73.2575705 290.158445,72.8303223 C290.849367,72.403074 291.639154,72.1894531 292.52783,72.1894531 C293.416506,72.1894531 294.206293,72.403074 294.897215,72.8303223 C295.588136,73.2575705 296.122799,73.8703573 296.501219,74.6687012 C296.879639,75.467045 297.068846,76.3886667 297.068846,77.4335938 L297.068846,77.909668 Z M294.842283,77.4262695 C294.842283,76.3080999 294.64209,75.458499 294.241697,74.8774414 C293.841305,74.2963838 293.270021,74.0058594 292.52783,74.0058594 C291.790522,74.0058594 291.22168,74.2927217 290.821287,74.8664551 C290.420895,75.4401884 290.21826,76.2812445 290.213377,77.3896484 L290.213377,77.909668 C290.213377,78.9985406 290.41357,79.8432587 290.813963,80.4438477 C291.214356,81.0444366 291.790522,81.3447266 292.542479,81.3447266 C293.279787,81.3447266 293.846188,81.0554228 294.241697,80.4768066 C294.637207,79.8981905 294.8374,79.054693 294.842283,77.9462891 L294.842283,77.4262695 Z M303.616619,72.3359375 L306.355877,80.0703125 L309.080486,72.3359375 L311.966228,72.3359375 L311.966228,83 L309.761639,83 L309.761639,80.0849609 L309.981365,75.0532227 L307.102947,83 L305.594158,83 L302.723064,75.0605469 L302.942791,80.0849609 L302.942791,83 L300.745525,83 L300.745525,72.3359375 L303.616619,72.3359375 Z M324.651697,83 L322.447107,83 L322.447107,74.1157227 L318.177088,74.1157227 L318.177088,83 L315.979822,83 L315.979822,72.3359375 L324.651697,72.3359375 L324.651697,83 Z M337.329842,72.3359375 L337.329842,83 L335.125252,83 L335.125252,74.1157227 L332.283455,74.1157227 L332.107674,77.8803711 C332.034431,79.1499087 331.8733,80.1496546 331.624275,80.8796387 C331.375251,81.6096228 331.011485,82.1442854 330.532967,82.4836426 C330.054449,82.8229997 329.400158,82.9951172 328.570076,83 L327.998787,83 L327.998787,81.2348633 L328.364998,81.1982422 C328.916758,81.1249996 329.311042,80.8063993 329.547859,80.2424316 C329.784677,79.678464 329.934822,78.6738354 329.998299,77.2285156 L330.181404,72.3359375 L337.329842,72.3359375 Z M347.744802,78.378418 L343.526052,78.378418 L343.526052,81.2348633 L348.477224,81.2348633 L348.477224,83 L341.328787,83 L341.328787,72.3359375 L348.462576,72.3359375 L348.462576,74.1157227 L343.526052,74.1157227 L343.526052,76.6572266 L347.744802,76.6572266 L347.744802,78.378418 Z M355.325291,78.6420898 L354.058201,78.6420898 L354.058201,83 L351.860935,83 L351.860935,72.3359375 L354.058201,72.3359375 L354.058201,76.605957 L355.061619,76.605957 L357.669041,72.3359375 L360.349705,72.3359375 L357.061131,77.3823242 L360.693943,83 L358.071873,83 L355.325291,78.6420898 Z M371.760759,79.4477539 C371.677751,80.5952206 371.254171,81.4985319 370.490007,82.1577148 C369.725843,82.8168978 368.718773,83.1464844 367.468767,83.1464844 C366.101573,83.1464844 365.026144,82.6862839 364.242449,81.7658691 C363.458753,80.8454544 363.066912,79.5820393 363.066912,77.9755859 L363.066912,77.3237305 C363.066912,76.2983347 363.247574,75.3950234 363.608904,74.6137695 C363.970234,73.8325156 364.486586,73.2331564 365.157976,72.8156738 C365.829366,72.3981913 366.609388,72.1894531 367.498064,72.1894531 C368.728539,72.1894531 369.71974,72.5190397 370.471697,73.1782227 C371.223654,73.8374056 371.65822,74.7626894 371.775408,75.9541016 L369.578142,75.9541016 C369.524431,75.2656216 369.332782,74.766359 369.003191,74.4562988 C368.6736,74.1462387 368.171896,73.9912109 367.498064,73.9912109 C366.765639,73.9912109 366.217548,74.2536595 365.853777,74.7785645 C365.490006,75.3034694 365.30324,76.1176703 365.293474,77.2211914 L365.293474,78.0268555 C365.293474,79.179205 365.468033,80.0214817 365.817156,80.5537109 C366.166279,81.0859402 366.71681,81.3520508 367.468767,81.3520508 C368.147481,81.3520508 368.654068,81.197023 368.988543,80.8869629 C369.323017,80.5769027 369.514665,80.0971712 369.563494,79.4477539 L371.760759,79.4477539 Z" id="Торгово-развлекатель"></path>
            </g>
        </g>
    </g>
</svg>