<svg xmlns="http://www.w3.org/2000/svg" width="20" height="22" viewBox="0 0 20 22">
    <g fill="none" fill-rule="evenodd" stroke="#FFF" stroke-linecap="round" stroke-linejoin="round" stroke-width="2">
        <path d="M18.846 21v-3.654c0-2.02-1.587-3.672-3.525-3.672H4.525C2.587 13.674 1 15.326 1 17.346V21h17.846zM13.747 5.777a3.825 3.825 0 1 1-7.649-.002 3.825 3.825 0 0 1 7.649.002z"/>
    </g>
</svg>
